{
  "main.css": "static/css/main.ebac970f.css",
  "main.css.map": "static/css/main.ebac970f.css.map",
  "main.js": "static/js/main.0c837700.js",
  "main.js.map": "static/js/main.0c837700.js.map",
  "static/media/Roboto-Bold.woff": "static/media/Roboto-Bold.eed9aab5.woff",
  "static/media/Roboto-Bold.woff2": "static/media/Roboto-Bold.c0f1e4a4.woff2",
  "static/media/Roboto-Light.woff": "static/media/Roboto-Light.ea36cd9a.woff",
  "static/media/Roboto-Light.woff2": "static/media/Roboto-Light.3c37aa69.woff2",
  "static/media/Roboto-Medium.woff": "static/media/Roboto-Medium.cf4d60bc.woff",
  "static/media/Roboto-Medium.woff2": "static/media/Roboto-Medium.1561b424.woff2",
  "static/media/Roboto-Regular.woff": "static/media/Roboto-Regular.3cf6adf6.woff",
  "static/media/Roboto-Regular.woff2": "static/media/Roboto-Regular.5136cbe6.woff2",
  "static/media/Roboto-Thin.woff": "static/media/Roboto-Thin.44b78f14.woff",
  "static/media/Roboto-Thin.woff2": "static/media/Roboto-Thin.1f35e6a1.woff2",
  "static/media/deathStar.svg": "static/media/deathStar.2e4838bd.svg",
  "static/media/logo.svg": "static/media/logo.b02209e4.svg"
}